{
"products": [
    {
        "product_id" : 0,
        "product_name" : "Inuyasha - Tom 01",
        "product_description" : "15-letnia Kagome Higurashi, mieszkająca we współczesnym Tokio, przenosi się do Japonii okresu sengoku, gdy zostaje wciągnięta przez do starej studni na terenie rodzinnej posiadłości. Tam spotyka pół człowieka, pół psiego demona InuYashę. Gdy yōkai próbuje odebrać znajdujący się w ciele Kagome posiadający ogromną moc Klejnot Czterech Dusz, Kagome przypadkowo rozbija klejnot na wiele odłamków, które rozlatują się po całej Japonii. InuYasha i Kagome decydują się podróżować razem w celu odnalezienia odłamów, zanim yōkai Naraku zbierze je wszystkie.",
        "product_price" : 47.40,
        "product_quantity" : 5,
        "product_image_href" : "images/products/pol_pl_Inuyasha-tom-01-oprawa-miekka-13099_1.jpg",
        "product_thumbnail_href" : "images/thumbnails/pol_pl_Inuyasha-tom-01-oprawa-miekka-13099_1.jpg",
        "product_rating" : 5
    },
    {
        "product_id" : 1,
        "product_name" : "Inuyasha - Tom 02",
        "product_description" : "15-letnia Kagome Higurashi, mieszkająca we współczesnym Tokio, przenosi się do Japonii okresu sengoku, gdy zostaje wciągnięta przez do starej studni na terenie rodzinnej posiadłości. Tam spotyka pół człowieka, pół psiego demona InuYashę. Gdy yōkai próbuje odebrać znajdujący się w ciele Kagome posiadający ogromną moc Klejnot Czterech Dusz, Kagome przypadkowo rozbija klejnot na wiele odłamków, które rozlatują się po całej Japonii. InuYasha i Kagome decydują się podróżować razem w celu odnalezienia odłamów, zanim yōkai Naraku zbierze je wszystkie.",
        "product_price" : 47.40,
        "product_quantity" : 5,
        "product_image_href" : "images/products/pol_pl_Inuyasha-tom-02-oprawa-twarda-OSTATNIE-13499_1.jpg",
        "product_thumbnail_href" : "images/thumbnails/pol_pl_Inuyasha-tom-02-oprawa-twarda-OSTATNIE-13499_1.jpg",
        "product_rating" : 5
    },
    {
        "product_id" : 2,
        "product_name" : "Inuyasha - Tom 03",
        "product_description" : "15-letnia Kagome Higurashi, mieszkająca we współczesnym Tokio, przenosi się do Japonii okresu sengoku, gdy zostaje wciągnięta przez do starej studni na terenie rodzinnej posiadłości. Tam spotyka pół człowieka, pół psiego demona InuYashę. Gdy yōkai próbuje odebrać znajdujący się w ciele Kagome posiadający ogromną moc Klejnot Czterech Dusz, Kagome przypadkowo rozbija klejnot na wiele odłamków, które rozlatują się po całej Japonii. InuYasha i Kagome decydują się podróżować razem w celu odnalezienia odłamów, zanim yōkai Naraku zbierze je wszystkie.",
        "product_price" : 47.40,
        "product_quantity" : 5,
        "product_image_href" : "images/products/pol_pl_Inuyasha-tom-03-oprawa-miekka-13101_1.jpg",
        "product_thumbnail_href" : "images/thumbnails/pol_pl_Inuyasha-tom-03-oprawa-miekka-13101_1.jpg",
        "product_rating" : 5
    },
    {
        "product_id" : 3,
        "product_name" : "Ranma 1/2 - Tom 01",
        "product_description" : "Ranma ½ to opowieść o młodym chłopcu Ranmie Saotome, który po niefortunnym treningu w pobliżu przeklętych źródełek leżących w Chinach po każdym kontakcie z zimną wodą zmienia się w dziewczynę. Jego ojciec, Genma, także ofiara wodnej klątwy, po zmoczeniu przybiera postać gigantycznej pandy. Na szczęście proces ten można odwrócić za pomocą gorącej wody. Ojciec Ranmy w młodości zawarł umowę ze swym przyjacielem, Sounem Tendo o przyszłym małżeństwie Ranmy z jedną z córek Souna. Młodemu Saotome dostaje się narzeczona dość narwana, bardzo zazdrosna, a ponadto także trenująca sztuki walki, Akane. Na domiar złego szybko pojawiają się nowe postacie, które skutecznie utrudniają życie Ranmie. Połowa z nich także zażyła kąpieli w przeklętych źródełkach, w efekcie przez ekran przewija się dość pokaźny zwierzyniec (prosiak, kaczka, kot). Całość uzupełnia malownicza postać starego mistrza panów Tendo i Saotome – Happosaia – niepokonanego i złośliwego dziadka, którego największą w życiu namiętnością jest kradziona damska bielizna.",
        "product_price" : 47.40,
        "product_quantity" : 5,
        "product_image_href" : "images/products/pol_pl_Ranma-1-2-tom-01-oprawa-miekka-13103_1.jpg",
        "product_thumbnail_href" : "images/thumbnails/pol_pl_Ranma-1-2-tom-01-oprawa-miekka-13103_1.jpg",
        "product_rating" : 4
    },
    {
        "product_id" : 4,
        "product_name" : "Ranma 1/2 - Tom 02",
        "product_description" : "Ranma ½ to opowieść o młodym chłopcu Ranmie Saotome, który po niefortunnym treningu w pobliżu przeklętych źródełek leżących w Chinach po każdym kontakcie z zimną wodą zmienia się w dziewczynę. Jego ojciec, Genma, także ofiara wodnej klątwy, po zmoczeniu przybiera postać gigantycznej pandy. Na szczęście proces ten można odwrócić za pomocą gorącej wody. Ojciec Ranmy w młodości zawarł umowę ze swym przyjacielem, Sounem Tendo o przyszłym małżeństwie Ranmy z jedną z córek Souna. Młodemu Saotome dostaje się narzeczona dość narwana, bardzo zazdrosna, a ponadto także trenująca sztuki walki, Akane. Na domiar złego szybko pojawiają się nowe postacie, które skutecznie utrudniają życie Ranmie. Połowa z nich także zażyła kąpieli w przeklętych źródełkach, w efekcie przez ekran przewija się dość pokaźny zwierzyniec (prosiak, kaczka, kot). Całość uzupełnia malownicza postać starego mistrza panów Tendo i Saotome – Happosaia – niepokonanego i złośliwego dziadka, którego największą w życiu namiętnością jest kradziona damska bielizna.",
        "product_price" : 47.40,
        "product_quantity" : 5,
        "product_image_href" : "images/products/pol_pl_Ranma-1-2-tom-02-oprawa-miekka-13104_1.jpg",
        "product_thumbnail_href" : "images/thumbnails/pol_pl_Ranma-1-2-tom-02-oprawa-miekka-13104_1.jpg",
        "product_rating" : 3
    },
    {
        "product_id" : 5,
        "product_name" : "Ranma 1/2 - Tom 03",
        "product_description" : "Ranma ½ to opowieść o młodym chłopcu Ranmie Saotome, który po niefortunnym treningu w pobliżu przeklętych źródełek leżących w Chinach po każdym kontakcie z zimną wodą zmienia się w dziewczynę. Jego ojciec, Genma, także ofiara wodnej klątwy, po zmoczeniu przybiera postać gigantycznej pandy. Na szczęście proces ten można odwrócić za pomocą gorącej wody. Ojciec Ranmy w młodości zawarł umowę ze swym przyjacielem, Sounem Tendo o przyszłym małżeństwie Ranmy z jedną z córek Souna. Młodemu Saotome dostaje się narzeczona dość narwana, bardzo zazdrosna, a ponadto także trenująca sztuki walki, Akane. Na domiar złego szybko pojawiają się nowe postacie, które skutecznie utrudniają życie Ranmie. Połowa z nich także zażyła kąpieli w przeklętych źródełkach, w efekcie przez ekran przewija się dość pokaźny zwierzyniec (prosiak, kaczka, kot). Całość uzupełnia malownicza postać starego mistrza panów Tendo i Saotome – Happosaia – niepokonanego i złośliwego dziadka, którego największą w życiu namiętnością jest kradziona damska bielizna.",
        "product_price" : 47.40,
        "product_quantity" : 5,
        "product_image_href" : "images/products/pol_pl_Ranma-1-2-tom-03-oprawa-miekka-13105_1.jpg",
        "product_thumbnail_href" : "images/thumbnails/pol_pl_Ranma-1-2-tom-03-oprawa-miekka-13105_1.jpg",
        "product_rating" : 3
    },
    {
        "product_id" : 6,
        "product_name" : "Syrenie opowieści - Tom 01",
        "product_description" : "Brak opisu.",
        "product_price" : 47.40,
        "product_quantity" : 5,
        "product_image_href" : "images/products/pol_pl_Syrenie-opowiesci-tom-01-oprawa-miekka-13622_1.jpg",
        "product_thumbnail_href" : "images/thumbnails/pol_pl_Syrenie-opowiesci-tom-01-oprawa-miekka-13622_1.jpg",
        "product_rating" : 5
    },
    {
        "product_id" : 7,
        "product_name" : "Syrenie opowieści - Tom 02",
        "product_description" : "Brak opisu.",
        "product_price" : 47.40,
        "product_quantity" : 5,
        "product_image_href" : "images/products/pol_pl_Syrenie-opowiesci-tom-02-oprawa-miekka-13624_1.jpg",
        "product_thumbnail_href" : "images/thumbnails/pol_pl_Syrenie-opowiesci-tom-02-oprawa-miekka-13624_1.jpg",
        "product_rating" : 5
    },
    {
        "product_id" : 8,
        "product_name" : "Rumik World - Tom 01",
        "product_description" : "Zbiór najlepszych krótkich historii Rumiko Takahashi.",
        "product_price" : 47.40,
        "product_quantity" : 5,
        "product_image_href" : "images/products/pol_pl_Rumik-World-tom-01-oprawa-miekka-13107_1.jpg",
        "product_thumbnail_href" : "images/thumbnails/pol_pl_Rumik-World-tom-01-oprawa-miekka-13107_1.jpg",
        "product_rating" : 4
    },
    {
        "product_id" : 9,
        "product_name" : "Rumik World - Tom 02",
        "product_description" : "Zbiór najlepszych krótkich historii Rumiko Takahashi.",
        "product_price" : 47.40,
        "product_quantity" : 5,
        "product_image_href" : "images/products/pol_pl_Rumik-World-tom-02-oprawa-miekka-13108_1.jpg",
        "product_thumbnail_href" : "images/thumbnails/pol_pl_Rumik-World-tom-02-oprawa-miekka-13108_1.jpg",
        "product_rating" : 4
    },
    {
        "product_id" : 10,
        "product_name" : "Urusei Yatsura (Ci kosmiczni natręci) - Tom 01",
        "product_description" : "Obca rasa znana jako Oni przybywa na Ziemię w niecnych zamiarach. Zamiast przejmować planetę siłą, przybysze dają ludziom szansę na walkę o prawa do planety, organizując zawody. Konkurs jest wariantem gry w berka, w której gracz-człowiek musi dotknąć rogów na głowie gracza-Oni w ciągu jednego tygodnia. Wybranym wśród ludzi graczem jest Ataru Moroboshi, lubieżny i pechowy nieudacznik z liceum w Tomobiki, a graczem Oni jest księżniczka Lum, córka przywódcy najeźdźców z kosmosu. Tak rozpoczyna się jedna z najbardziej absurdalnych komedii znanych ludzkości!",
        "product_price" : 47.40,
        "product_quantity" : 5,
        "product_image_href" : "images/products/pol_pl_Urusei-Yatsura-Ci-kosmiczni-natreci-tom-01-oprawa-miekka-14044_1.jpg",
        "product_thumbnail_href" : "images/thumbnails/pol_pl_Urusei-Yatsura-Ci-kosmiczni-natreci-tom-01-oprawa-miekka-14044_1.jpg",
        "product_rating" : 3
    },
    {
        "product_id" : 11,
        "product_name" : "Urusei Yatsura (Ci kosmiczni natręci) - Tom 02",
        "product_description" : "Obca rasa znana jako Oni przybywa na Ziemię w niecnych zamiarach. Zamiast przejmować planetę siłą, przybysze dają ludziom szansę na walkę o prawa do planety, organizując zawody. Konkurs jest wariantem gry w berka, w której gracz-człowiek musi dotknąć rogów na głowie gracza-Oni w ciągu jednego tygodnia. Wybranym wśród ludzi graczem jest Ataru Moroboshi, lubieżny i pechowy nieudacznik z liceum w Tomobiki, a graczem Oni jest księżniczka Lum, córka przywódcy najeźdźców z kosmosu. Tak rozpoczyna się jedna z najbardziej absurdalnych komedii znanych ludzkości!",
        "product_price" : 47.40,
        "product_quantity" : 5,
        "product_image_href" : "images/products/pol_pl_Urusei-Yatsura-Ci-kosmiczni-natreci-tom-02-oprawa-miekka-14046_1.jpg",
        "product_thumbnail_href" : "images/thumbnails/pol_pl_Urusei-Yatsura-Ci-kosmiczni-natreci-tom-02-oprawa-miekka-14046_1.jpg",
        "product_rating" : 3
    },
    {
        "product_id" : 12,
        "product_name" : "Initial D - Tom 01",
        "product_description" : "Główny bohater, Takumi Fujiwara, pracuje na stacji benzynowej ze swoim najlepszym przyjacielem Itsukim, który jest żywo zainteresowany udziałem w wyścigach ulicznych. Najbliższy zespół, do którego pragnie dołączyć, to Akina Speedstars, którego lider również pracuje na tej samej stacji. W tajemnicy przed swoimi kolegami, Takumi pomaga swojemu ojcu Buncie, dostarczając każdego poranka do jego sklepu tofu. W ciągu ponad 5 lat buduje przy tym imponujące umiejętności prowadzenia rodzinnego samochodu, starzejącej się Toyoty Sprinter Trueno (AE86).",
        "product_price" : 53.00,
        "product_quantity" : 5,
        "product_image_href" : "images/products/pol_pl_Initial-D-tom-01-oprawa-miekka-14113_1.jpg",
        "product_thumbnail_href" : "images/thumbnails/pol_pl_Initial-D-tom-01-oprawa-miekka-14113_1.jpg",
        "product_rating" : 5
    },
    {
        "product_id" : 13,
        "product_name" : "Initial D - Tom 02",
        "product_description" : "Główny bohater, Takumi Fujiwara, pracuje na stacji benzynowej ze swoim najlepszym przyjacielem Itsukim, który jest żywo zainteresowany udziałem w wyścigach ulicznych. Najbliższy zespół, do którego pragnie dołączyć, to Akina Speedstars, którego lider również pracuje na tej samej stacji. W tajemnicy przed swoimi kolegami, Takumi pomaga swojemu ojcu Buncie, dostarczając każdego poranka do jego sklepu tofu. W ciągu ponad 5 lat buduje przy tym imponujące umiejętności prowadzenia rodzinnego samochodu, starzejącej się Toyoty Sprinter Trueno (AE86).",
        "product_price" : 53.00,
        "product_quantity" : 5,
        "product_image_href" : "images/products/pol_pl_Initial-D-tom-02-oprawa-miekka-14115_1.jpg",
        "product_thumbnail_href" : "images/thumbnails/pol_pl_Initial-D-tom-02-oprawa-miekka-14115_1.jpg",
        "product_rating" : 5
    },
    {
        "product_id" : 14,
        "product_name" : "Initial D - Tom 03",
        "product_description" : "Główny bohater, Takumi Fujiwara, pracuje na stacji benzynowej ze swoim najlepszym przyjacielem Itsukim, który jest żywo zainteresowany udziałem w wyścigach ulicznych. Najbliższy zespół, do którego pragnie dołączyć, to Akina Speedstars, którego lider również pracuje na tej samej stacji. W tajemnicy przed swoimi kolegami, Takumi pomaga swojemu ojcu Buncie, dostarczając każdego poranka do jego sklepu tofu. W ciągu ponad 5 lat buduje przy tym imponujące umiejętności prowadzenia rodzinnego samochodu, starzejącej się Toyoty Sprinter Trueno (AE86).",
        "product_price" : 53.00,
        "product_quantity" : 5,
        "product_image_href" : "images/products/pol_pl_Initial-D-tom-03-oprawa-miekka-preorder-14117_1.jpg",
        "product_thumbnail_href" : "images/thumbnails/pol_pl_Initial-D-tom-03-oprawa-miekka-preorder-14117_1.jpg",
        "product_rating" : 5
    }
]
}
